%!PS-Adobe-3.0 EPSF-3.0
%%Creator: cairo 1.8.8 (http://cairographics.org)
%%CreationDate: Fri Apr 23 11:10:13 2010
%%Pages: 1
%%BoundingBox: 0 0 784 360
%%DocumentData: Clean7Bit
%%LanguageLevel: 2
%%EndComments
%%BeginProlog
/cairo_eps_state save def
/dict_count countdictstack def
/op_count count 1 sub def
userdict begin
/q { gsave } bind def
/Q { grestore } bind def
/cm { 6 array astore concat } bind def
/w { setlinewidth } bind def
/J { setlinecap } bind def
/j { setlinejoin } bind def
/M { setmiterlimit } bind def
/d { setdash } bind def
/m { moveto } bind def
/l { lineto } bind def
/c { curveto } bind def
/h { closepath } bind def
/re { exch dup neg 3 1 roll 5 3 roll moveto 0 rlineto
      0 exch rlineto 0 rlineto closepath } bind def
/S { stroke } bind def
/f { fill } bind def
/f* { eofill } bind def
/B { fill stroke } bind def
/B* { eofill stroke } bind def
/n { newpath } bind def
/W { clip } bind def
/W* { eoclip } bind def
/BT { } bind def
/ET { } bind def
/pdfmark where { pop globaldict /?pdfmark /exec load put }
    { globaldict begin /?pdfmark /pop load def /pdfmark
    /cleartomark load def end } ifelse
/BDC { mark 3 1 roll /BDC pdfmark } bind def
/EMC { mark /EMC pdfmark } bind def
/cairo_store_point { /cairo_point_y exch def /cairo_point_x exch def } def
/Tj { show currentpoint cairo_store_point } bind def
/TJ {
  {
    dup
    type /stringtype eq
    { show } { -0.001 mul 0 cairo_font_matrix dtransform rmoveto } ifelse
  } forall
  currentpoint cairo_store_point
} bind def
/cairo_selectfont { cairo_font_matrix aload pop pop pop 0 0 6 array astore
    cairo_font exch selectfont cairo_point_x cairo_point_y moveto } bind def
/Tf { pop /cairo_font exch def /cairo_font_matrix where
      { pop cairo_selectfont } if } bind def
/Td { matrix translate cairo_font_matrix matrix concatmatrix dup
      /cairo_font_matrix exch def dup 4 get exch 5 get cairo_store_point
      /cairo_font where { pop cairo_selectfont } if } bind def
/Tm { 2 copy 8 2 roll 6 array astore /cairo_font_matrix exch def
      cairo_store_point /cairo_font where { pop cairo_selectfont } if } bind def
/g { setgray } bind def
/rg { setrgbcolor } bind def
/d1 { setcachedevice } bind def
%%EndProlog
%%Page: 1 1
%%BeginPageSetup
%%PageBoundingBox: 0 0 784 360
%%EndPageSetup
q
0 g
779.605 359.623 m 595.195 359.623 l 595.195 296.811 l 649.113 296.811 l 
649.113 80.28 l 725.688 80.28 l 725.688 296.811 l 779.605 296.811 l 
779.605 359.623 l h
576.84 80.569 m 500.266 80.569 l 500.266 359.623 l 576.84 359.623 l 
576.84 80.569 l h
487.359 80.569 m 402.18 80.569 l 300.941 189.264 l 300.941 251.498 l 
399.027 359.909 l 486.785 359.909 l 373.789 219.377 l 487.359 80.569 l 
h
487.359 80.569 m f*
282.586 80.569 0 0 re f*
282.586 80.569 0 0 re f*
0.196078 0.631373 0.537255 rg
64.332 257.522 m 49.707 239.741 37.086 220.237 27.336 199.303 c 282.586 
80.569 l 64.332 257.522 l h
64.332 257.522 m f*
282.586 80.569 m 163.562 333.811 l 142.34 324.057 122.84 312.014 
105.059 297.674 c 282.586 80.569 l 282.586 80.569 l h
282.586 80.569 m f*
0 g
282.586 80.569 m 282.871 359.623 l 280.578 359.623 l 257.922 359.623 
235.836 356.752 214.613 351.592 c 282.586 80.569 l 282.586 80.569 l h
282.586 80.569 m f*
282.586 80.569 m 282.586 80.569 l 282.586 80.569 l 282.586 80.569 l 
282.586 80.569 l h
282.586 80.569 m f*
282.586 80.569 m 282.586 80.569 l 282.586 80.569 l 282.586 80.569 l 
282.586 80.569 l h
282.586 80.569 m f*
0.196078 0.631373 0.537255 rg
8.98 148.826 m 3.246 127.03 0.375 104.084 0.09 80.569 c 282.586 80.569 
l 8.98 148.826 l h
8.98 148.826 m f*
0 g
0 11.33 m 5.098 11.33 l 5.098 28.768 l 20.957 11.33 l 28.402 11.33 l 
10.352 30.096 l 27.078 46.92 l 20.293 46.92 l 5.098 31.268 l 5.098 
46.92 l 0 46.92 l 0 11.33 l h
0 11.33 m f
34.777 31.42 m 36.715 33.053 39.621 34.073 42.324 34.073 c 47.117 
34.073 48.75 31.776 48.75 27.291 c 46.863 27.393 45.535 27.393 43.648 
27.393 c 38.703 27.393 31.562 25.354 31.562 18.823 c 31.562 13.162 
35.488 10.709 41.098 10.709 c 45.484 10.709 48.035 13.112 49.156 14.694 
c 49.258 14.694 l 49.258 11.33 l 53.746 11.33 l 53.645 12.092 53.543 
13.471 53.543 16.428 c 53.543 27.19 l 53.543 34.276 50.531 37.948 43.09 
37.948 c 39.773 37.948 36.918 36.928 34.52 35.498 c 34.777 31.42 l h
48.75 21.424 m 48.75 17.549 46.25 14.592 41.508 14.592 c 39.312 14.592 
36.664 16.073 36.664 18.823 c 36.664 23.416 43.09 23.823 45.688 23.823 
c 46.707 23.823 47.727 23.721 48.75 23.721 c 48.75 21.424 l h
48.75 21.424 m f
61.648 11.33 m 66.441 11.33 l 66.441 23.159 l 66.441 29.686 69.246 
33.764 73.531 33.764 c 74.348 33.764 75.316 33.662 76.184 33.307 c 
76.184 37.588 l 75.164 37.795 74.449 37.948 73.02 37.948 c 70.266 
37.948 67.512 36.01 66.238 33.307 c 66.137 33.307 l 66.137 37.334 l 
61.648 37.334 l 61.648 11.33 l h
61.648 11.33 m f
82.098 11.33 m 86.891 11.33 l 86.891 49.573 l 82.098 49.573 l 82.098 
11.33 l h
82.098 11.33 m f
93.469 12.147 m 95.66 10.963 98.16 10.709 100.605 10.709 c 105.246 
10.709 109.684 13.268 109.684 18.823 c 109.684 27.135 98.414 25.608 
98.414 30.909 c 98.414 33.053 100.555 34.073 103.004 34.073 c 104.125 
34.073 106.98 33.409 108.051 32.744 c 108.461 36.928 l 106.574 37.487 
104.738 37.948 102.492 37.948 c 97.344 37.948 93.316 35.346 93.316 
29.94 c 93.316 22.651 104.586 23.057 104.586 18.315 c 104.586 15.51 
101.883 14.592 99.691 14.592 c 98.312 14.592 95.609 15.205 93.723 
16.428 c 93.469 12.147 l h
93.469 12.147 m f
115.496 11.33 m 120.289 11.33 l 120.289 23.159 l 120.289 29.686 123.094 
33.764 127.379 33.764 c 128.195 33.764 129.164 33.662 130.031 33.307 c 
130.031 37.588 l 129.012 37.795 128.297 37.948 126.867 37.948 c 124.113 
37.948 121.359 36.01 120.086 33.307 c 119.984 33.307 l 119.984 37.334 l 
115.496 37.334 l 115.496 11.33 l h
115.496 11.33 m f
158.332 37.334 m 153.539 37.334 l 153.539 25.303 l 153.539 18.979 
151.09 14.592 145.633 14.592 c 141.453 14.85 140.125 17.807 140.125 
23.873 c 140.125 37.334 l 135.332 37.334 l 135.332 21.885 l 135.332 
14.901 138.344 10.709 145.074 10.709 c 148.695 10.709 152.16 12.502 
153.59 15.459 c 153.691 15.459 l 153.691 11.33 l 158.332 11.33 l 
158.332 37.334 l h
158.332 37.334 m f
166.488 11.33 m 171.281 11.33 l 171.281 23.362 l 171.281 29.686 173.73 
34.073 179.188 34.073 c 183.367 33.819 184.691 30.858 184.691 24.791 c 
184.691 11.33 l 189.484 11.33 l 189.484 26.78 l 189.484 33.764 186.477 
37.948 179.746 37.948 c 176.125 37.948 173.117 36.366 171.383 33.612 c 
171.281 33.612 l 171.281 49.573 l 166.488 49.573 l 166.488 11.33 l h
166.488 11.33 m f
217.582 17.194 m 216.41 16.225 212.738 14.592 209.578 14.592 c 205.039 
14.592 201.012 18.112 201.012 23.26 c 219.57 23.26 l 219.57 31.623 
216.766 37.948 208.098 37.948 c 200.754 37.948 195.91 32.491 195.91 
24.791 c 195.91 16.326 200.145 10.709 209.371 10.709 c 213.656 10.709 
215.746 11.737 217.582 12.401 c 217.582 17.194 l h
201.012 26.83 m 201.367 30.198 203.305 34.073 207.996 34.073 c 212.125 
34.073 214.473 30.807 214.473 26.83 c 201.012 26.83 l h
201.012 26.83 m f
240.633 11.33 m 245.73 11.33 l 245.73 46.92 l 240.633 46.92 l 240.633 
11.33 l h
240.633 11.33 m f
254.348 11.33 m 259.141 11.33 l 259.141 23.362 l 259.141 29.686 261.59 
34.073 267.047 34.073 c 271.227 33.819 272.551 30.858 272.551 24.791 c 
272.551 11.33 l 277.344 11.33 l 277.344 26.78 l 277.344 33.764 274.336 
37.948 267.605 37.948 c 263.984 37.948 260.52 36.162 259.09 33.205 c 
258.988 33.205 l 258.988 37.334 l 254.348 37.334 l 254.348 11.33 l h
254.348 11.33 m f
283.312 12.147 m 285.504 10.963 288.004 10.709 290.449 10.709 c 295.09 
10.709 299.527 13.268 299.527 18.823 c 299.527 27.135 288.258 25.608 
288.258 30.909 c 288.258 33.053 290.398 34.073 292.848 34.073 c 293.969 
34.073 296.824 33.409 297.895 32.744 c 298.301 36.928 l 296.414 37.487 
294.582 37.948 292.336 37.948 c 287.188 37.948 283.156 35.346 283.156 
29.94 c 283.156 22.651 294.426 23.057 294.426 18.315 c 294.426 15.51 
291.727 14.592 289.531 14.592 c 288.156 14.592 285.453 15.205 283.566 
16.428 c 283.312 12.147 l h
283.312 12.147 m f
319.16 37.334 m 312.277 37.334 l 312.277 44.881 l 307.48 43.354 l 
307.48 37.334 l 301.617 37.334 l 301.617 33.459 l 307.48 33.459 l 
307.48 18.264 l 307.48 13.061 310.539 10.709 315.488 10.709 c 317.02 
10.709 318.496 11.116 319.566 11.432 c 319.566 15.51 l 318.855 15.053 
317.781 14.592 316.305 14.592 c 314.109 14.592 312.277 16.225 312.277 
19.233 c 312.277 33.459 l 319.16 33.459 l 319.16 37.334 l h
319.16 37.334 m f
325.789 11.33 m 330.582 11.33 l 330.582 37.334 l 325.789 37.334 l 
325.789 11.33 l h
330.887 48.553 m 325.484 48.553 l 325.484 43.147 l 330.887 43.147 l 
330.887 48.553 l h
330.887 48.553 m f
353.172 37.334 m 346.289 37.334 l 346.289 44.881 l 341.496 43.354 l 
341.496 37.334 l 335.629 37.334 l 335.629 33.459 l 341.496 33.459 l 
341.496 18.264 l 341.496 13.061 344.555 10.709 349.5 10.709 c 351.031 
10.709 352.508 11.116 353.578 11.432 c 353.578 15.51 l 352.867 15.053 
351.793 14.592 350.316 14.592 c 348.125 14.592 346.289 16.225 346.289 
19.233 c 346.289 33.459 l 353.172 33.459 l 353.172 37.334 l h
353.172 37.334 m f
382.184 37.334 m 377.391 37.334 l 377.391 25.303 l 377.391 18.979 
374.945 14.592 369.488 14.592 c 365.309 14.85 363.98 17.807 363.98 
23.873 c 363.98 37.334 l 359.188 37.334 l 359.188 21.885 l 359.188 
14.901 362.195 10.709 368.93 10.709 c 372.547 10.709 376.016 12.502 
377.445 15.459 c 377.547 15.459 l 377.547 11.33 l 382.184 11.33 l 
382.184 37.334 l h
382.184 37.334 m f
404.164 37.334 m 397.277 37.334 l 397.277 44.881 l 392.484 43.354 l 
392.484 37.334 l 386.621 37.334 l 386.621 33.459 l 392.484 33.459 l 
392.484 18.264 l 392.484 13.061 395.543 10.709 400.492 10.709 c 402.02 
10.709 403.5 11.116 404.57 11.432 c 404.57 15.51 l 403.859 15.053 
402.785 14.592 401.305 14.592 c 399.113 14.592 397.277 16.225 397.277 
19.233 c 397.277 33.459 l 404.164 33.459 l 404.164 37.334 l h
404.164 37.334 m f
430.117 17.194 m 428.945 16.225 425.273 14.592 422.113 14.592 c 417.574 
14.592 413.547 18.112 413.547 23.26 c 432.105 23.26 l 432.105 31.623 
429.301 37.948 420.633 37.948 c 413.293 37.948 408.445 32.491 408.445 
24.791 c 408.445 16.326 412.68 10.709 421.91 10.709 c 426.191 10.709 
428.281 11.737 430.117 12.401 c 430.117 17.194 l h
413.547 26.83 m 413.902 30.198 415.84 34.073 420.531 34.073 c 424.664 
34.073 427.008 30.807 427.008 26.83 c 413.547 26.83 l h
413.547 26.83 m f
450.973 24.334 m 450.973 16.889 456.379 10.709 464.23 10.709 c 472.035 
10.709 477.438 16.889 477.438 24.334 c 477.438 32.237 472.137 37.948 
464.23 37.948 c 456.277 37.948 450.973 32.237 450.973 24.334 c h
456.074 24.334 m 456.074 29.28 459.082 34.073 464.23 34.073 c 469.332 
34.073 472.34 29.28 472.34 24.334 c 472.34 19.694 469.84 14.592 464.23 
14.592 c 458.57 14.592 456.074 19.694 456.074 24.334 c h
456.074 24.334 m f
486.973 11.33 m 491.77 11.33 l 491.77 33.459 l 498.652 33.459 l 498.652 
37.334 l 491.77 37.334 l 491.77 40.139 l 491.77 43.659 492.277 46.311 
496.406 46.311 c 497.223 46.311 498.141 46.209 498.703 46.002 c 498.906 
49.877 l 497.938 50.034 496.918 50.186 495.695 50.186 c 488.605 50.186 
486.973 46.053 486.973 39.733 c 486.973 37.334 l 480.855 37.334 l 
480.855 33.459 l 486.973 33.459 l 486.973 11.33 l h
486.973 11.33 m f
525.422 11.33 m 530.523 11.33 l 530.523 42.436 l 541.586 42.436 l 
541.586 46.92 l 514.359 46.92 l 514.359 42.436 l 525.422 42.436 l 
525.422 11.33 l h
525.422 11.33 m f
562.391 17.194 m 561.219 16.225 557.547 14.592 554.387 14.592 c 549.848 
14.592 545.82 18.112 545.82 23.26 c 564.379 23.26 l 564.379 31.623 
561.574 37.948 552.906 37.948 c 545.566 37.948 540.719 32.491 540.719 
24.791 c 540.719 16.326 544.953 10.709 554.184 10.709 c 558.465 10.709 
560.555 11.737 562.391 12.401 c 562.391 17.194 l h
545.82 26.83 m 546.176 30.198 548.113 34.073 552.805 34.073 c 556.938 
34.073 559.281 30.807 559.281 26.83 c 545.82 26.83 l h
545.82 26.83 m f
587.734 36.928 m 586.359 37.487 583.859 37.948 581.922 37.948 c 573.969 
37.948 568.664 32.237 568.664 24.334 c 568.664 16.889 574.07 10.709 
581.922 10.709 c 583.656 10.709 585.949 10.862 587.938 11.787 c 587.582 
16.073 l 586.105 15.1 584.062 14.592 582.434 14.592 c 576.262 14.592 
573.762 19.694 573.762 24.334 c 573.762 29.28 576.773 34.073 582.125 
34.073 c 583.656 34.073 585.492 33.713 587.328 32.951 c 587.734 36.928 
l h
587.734 36.928 m f
593.445 11.33 m 598.238 11.33 l 598.238 23.362 l 598.238 29.686 600.688 
34.073 606.145 34.073 c 610.324 33.819 611.648 30.858 611.648 24.791 c 
611.648 11.33 l 616.441 11.33 l 616.441 26.78 l 616.441 33.764 613.434 
37.948 606.703 37.948 c 603.082 37.948 600.074 36.366 598.34 33.612 c 
598.238 33.612 l 598.238 49.573 l 593.445 49.573 l 593.445 11.33 l h
593.445 11.33 m f
624.602 11.33 m 629.395 11.33 l 629.395 23.362 l 629.395 29.686 631.844 
34.073 637.297 34.073 c 641.48 33.819 642.805 30.858 642.805 24.791 c 
642.805 11.33 l 647.598 11.33 l 647.598 26.78 l 647.598 33.764 644.59 
37.948 637.859 37.948 c 634.238 37.948 630.77 36.162 629.344 33.205 c 
629.242 33.205 l 629.242 37.334 l 624.602 37.334 l 624.602 11.33 l h
624.602 11.33 m f
654.023 24.334 m 654.023 16.889 659.426 10.709 667.281 10.709 c 675.082 
10.709 680.488 16.889 680.488 24.334 c 680.488 32.237 675.184 37.948 
667.281 37.948 c 659.324 37.948 654.023 32.237 654.023 24.334 c h
659.121 24.334 m 659.121 29.28 662.129 34.073 667.281 34.073 c 672.379 
34.073 675.391 29.28 675.391 24.334 c 675.391 19.694 672.891 14.592 
667.281 14.592 c 661.621 14.592 659.121 19.694 659.121 24.334 c h
659.121 24.334 m f
687.523 11.33 m 692.316 11.33 l 692.316 49.573 l 687.523 49.573 l 
687.523 11.33 l h
687.523 11.33 m f
699.355 24.334 m 699.355 16.889 704.758 10.709 712.613 10.709 c 720.414 
10.709 725.82 16.889 725.82 24.334 c 725.82 32.237 720.516 37.948 
712.613 37.948 c 704.656 37.948 699.355 32.237 699.355 24.334 c h
704.453 24.334 m 704.453 29.28 707.461 34.073 712.613 34.073 c 717.711 
34.073 720.719 29.28 720.719 24.334 c 720.719 19.694 718.223 14.592 
712.613 14.592 c 706.953 14.592 704.453 19.694 704.453 24.334 c h
704.453 24.334 m f
755.242 37.334 m 750.805 37.334 l 750.805 33.459 l 750.703 33.459 l 
749.273 36.264 746.727 37.948 742.137 37.948 c 734.285 37.948 730.512 
30.807 730.512 24.127 c 730.512 17.397 734.18 11.33 741.629 11.33 c 
744.941 11.33 748.309 12.655 750.348 15.358 c 750.449 15.358 l 750.449 
12.807 l 750.449 7.291 747.441 3.873 742.391 3.873 c 738.875 3.873 
736.68 4.537 733.008 6.221 c 732.5 1.784 l 736.68 0.358 739.078 -0.002 
741.832 -0.002 c 751.164 -0.002 755.242 4.537 755.242 12.451 c 755.242 
37.334 l h
742.852 15.205 m 738.363 15.205 735.609 19.487 735.609 24.385 c 735.609 
28.819 738.008 34.073 742.852 34.073 c 747.949 34.073 750.449 29.432 
750.449 24.026 c 750.449 19.182 747.34 15.205 742.852 15.205 c h
742.852 15.205 m f
761.156 0.358 m 762.023 0.205 762.891 -0.002 764.418 -0.002 c 770.742 
-0.002 772.629 5.764 774.414 10.76 c 784 37.334 l 779.156 37.334 l 
772.016 15.815 l 771.914 15.815 l 764.93 37.334 l 759.676 37.334 l 
768.5 13.061 l 768.805 12.194 769.418 10.862 769.418 10.303 c 769.418 
9.791 767.988 3.873 763.707 3.873 c 762.891 3.873 762.074 4.08 761.461 
4.284 c 761.156 0.358 l h
761.156 0.358 m f
Q
showpage
%%Trailer
count op_count sub {pop} repeat
countdictstack dict_count sub {end} repeat
cairo_eps_state restore
%%EOF
